My Data Analysis Portfolio - Model Evaluation
…
tree_res %>%  collect_metrics()

# A tibble: 50 × 8
   cost_complexity tree_depth .metric .estimator     mean     n  std_err .config
             <dbl>      <int> <chr>   <chr>         <dbl> <int>    <dbl> <chr>  
 1    0.0000000001          1 rmse    standard     1.19      25  0.0181  Prepro…
 2    0.0000000001          1 rsq     standard     0.0361    25  0.00422 Prepro…
 3    0.0000000178          1 rmse    standard     1.19      25  0.0181  Prepro…
 4    0.0000000178          1 rsq     standard     0.0361    25  0.00422 Prepro…
 5    0.00000316            1 rmse    standard     1.19      25  0.0181  Prepro…
 6    0.00000316            1 rsq     standard     0.0361    25  0.00422 Prepro…
 7    0.000562              1 rmse    standard     1.19      25  0.0181  Prepro…
 8    0.000562              1 rsq     standard     0.0361    25  0.00422 Prepro…
 9    0.1                   1 rmse    standard     1.21      25  0.0177  Prepro…
10    0.1                   1 rsq     standard   NaN          0 NA       Prepro…
# … with 40 more rows
…
