My Data Analysis Portfolio - Tidy Tuesday Exercise 2
…
tree_wf <- workflow() %>%
  add_model(tune_spec) %>%
  add_recipe(recipe)

#getting turning results 
tree_res <- 
  tree_wf %>% 
  tune_grid(
    resamples = CV_fold,
    grid = tree_grid
    )

tree_res %>%  collect_metrics()

# A tibble: 50 × 8
   cost_complexity tree_depth .metric .estimator      mean     n std_err .config
             <dbl>      <int> <chr>   <chr>          <dbl> <int>   <dbl> <chr>  
 1    0.0000000001          1 rmse    standard     3.96e+8    25 5.41e+6 Prepro…
 2    0.0000000001          1 rsq     standard     9.84e-1    25 5.41e-4 Prepro…
 3    0.0000000178          1 rmse    standard     3.96e+8    25 5.41e+6 Prepro…
 4    0.0000000178          1 rsq     standard     9.84e-1    25 5.41e-4 Prepro…
 5    0.00000316            1 rmse    standard     3.96e+8    25 5.41e+6 Prepro…
 6    0.00000316            1 rsq     standard     9.84e-1    25 5.41e-4 Prepro…
 7    0.000562              1 rmse    standard     3.96e+8    25 5.41e+6 Prepro…
 8    0.000562              1 rsq     standard     9.84e-1    25 5.41e-4 Prepro…
 9    0.1                   1 rmse    standard     3.96e+8    25 5.41e+6 Prepro…
10    0.1                   1 rsq     standard     9.84e-1    25 5.41e-4 Prepro…
# … with 40 more rows
…
